^G:\경재현 노트북 백업\2_개발\2011 년\4_OBJECT_TRACKING\VIRTURE_LRF\VIRTURE_LRF\STDAFX.CPP
/c /I../../domain_include /ZI /nologo /W3 /WX- /Od /Oy- /D WIN32 /D _WINDOWS /D _DEBUG /D _MBCS /Gm /EHsc /RTC1 /MTd /GS /fp:precise /Zc:wchar_t /Zc:forScope /Yc"StdAfx.h" /Fp"Debug\Virture_LRF.pch" /Fo"Debug\\" /Fd"Debug\vc100.pdb" /Gd /TP /analyze- /errorReport:prompt G:\경재현 노트북 백업\2_개발\2011 년\4_OBJECT_TRACKING\VIRTURE_LRF\VIRTURE_LRF\STDAFX.CPP
^G:\경재현 노트북 백업\2_개발\2011 년\4_OBJECT_TRACKING\VIRTURE_LRF\VIRTURE_LRF\FIX_OBJECT.CPP
/c /I../../domain_include /ZI /nologo /W3 /WX- /Od /Oy- /D WIN32 /D _WINDOWS /D _DEBUG /D _MBCS /Gm /EHsc /RTC1 /MTd /GS /fp:precise /Zc:wchar_t /Zc:forScope /Yu"StdAfx.h" /Fp"Debug\Virture_LRF.pch" /Fo"Debug\\" /Fd"Debug\vc100.pdb" /Gd /TP /analyze- /errorReport:prompt G:\경재현 노트북 백업\2_개발\2011 년\4_OBJECT_TRACKING\VIRTURE_LRF\VIRTURE_LRF\FIX_OBJECT.CPP
^G:\경재현 노트북 백업\2_개발\2011 년\4_OBJECT_TRACKING\VIRTURE_LRF\VIRTURE_LRF\MOVING_OBJECT.CPP
/c /I../../domain_include /ZI /nologo /W3 /WX- /Od /Oy- /D WIN32 /D _WINDOWS /D _DEBUG /D _MBCS /Gm /EHsc /RTC1 /MTd /GS /fp:precise /Zc:wchar_t /Zc:forScope /Yu"StdAfx.h" /Fp"Debug\Virture_LRF.pch" /Fo"Debug\\" /Fd"Debug\vc100.pdb" /Gd /TP /analyze- /errorReport:prompt G:\경재현 노트북 백업\2_개발\2011 년\4_OBJECT_TRACKING\VIRTURE_LRF\VIRTURE_LRF\MOVING_OBJECT.CPP
^G:\경재현 노트북 백업\2_개발\2011 년\4_OBJECT_TRACKING\VIRTURE_LRF\VIRTURE_LRF\VIRTURE_LRF.CPP
/c /I../../domain_include /ZI /nologo /W3 /WX- /Od /Oy- /D WIN32 /D _WINDOWS /D _DEBUG /D _MBCS /Gm /EHsc /RTC1 /MTd /GS /fp:precise /Zc:wchar_t /Zc:forScope /Yu"StdAfx.h" /Fp"Debug\Virture_LRF.pch" /Fo"Debug\\" /Fd"Debug\vc100.pdb" /Gd /TP /analyze- /errorReport:prompt G:\경재현 노트북 백업\2_개발\2011 년\4_OBJECT_TRACKING\VIRTURE_LRF\VIRTURE_LRF\VIRTURE_LRF.CPP
^G:\경재현 노트북 백업\2_개발\2011 년\4_OBJECT_TRACKING\VIRTURE_LRF\VIRTURE_LRF\VIRTURE_LRFDLG.CPP
/c /I../../domain_include /ZI /nologo /W3 /WX- /Od /Oy- /D WIN32 /D _WINDOWS /D _DEBUG /D _MBCS /Gm /EHsc /RTC1 /MTd /GS /fp:precise /Zc:wchar_t /Zc:forScope /Yu"StdAfx.h" /Fp"Debug\Virture_LRF.pch" /Fo"Debug\\" /Fd"Debug\vc100.pdb" /Gd /TP /analyze- /errorReport:prompt G:\경재현 노트북 백업\2_개발\2011 년\4_OBJECT_TRACKING\VIRTURE_LRF\VIRTURE_LRF\VIRTURE_LRFDLG.CPP
