^D:\2_개발\2013 년\4_GLOBALPATHPLANNING\3]GPP_COMPLATE\GPP_OPTIMAZINGPATH\STDAFX.CPP
/c /I"C:\Program Files (x86)\MySQL\MySQL Server 6.0\include" /IImageCtrl /Zi /nologo /W3 /WX- /O2 /Oi /Oy- /GL /D WIN32 /D _WINDOWS /D NDEBUG /D _MBCS /D _AFXDLL /Gm- /EHsc /MD /GS /Gy /fp:precise /Zc:wchar_t /Zc:forScope /Yc"StdAfx.h" /Fp"Release\GPP_OptimazingPath.pch" /Fo"Release\\" /Fd"Release\vc100.pdb" /Gd /TP /wd4996 /analyze- /errorReport:prompt D:\2_개발\2013 년\4_GLOBALPATHPLANNING\3]GPP_COMPLATE\GPP_OPTIMAZINGPATH\STDAFX.CPP
^D:\2_개발\2013 년\4_GLOBALPATHPLANNING\3]GPP_COMPLATE\GPP_OPTIMAZINGPATH\GPP_DATA_STRUCT.CPP
/c /I"C:\Program Files (x86)\MySQL\MySQL Server 6.0\include" /IImageCtrl /Zi /nologo /W3 /WX- /O2 /Oi /Oy- /GL /D WIN32 /D _WINDOWS /D NDEBUG /D _MBCS /D _AFXDLL /Gm- /EHsc /MD /GS /Gy /fp:precise /Zc:wchar_t /Zc:forScope /Yu"StdAfx.h" /Fp"Release\GPP_OptimazingPath.pch" /Fo"Release\\" /Fd"Release\vc100.pdb" /Gd /TP /wd4996 /analyze- /errorReport:prompt D:\2_개발\2013 년\4_GLOBALPATHPLANNING\3]GPP_COMPLATE\GPP_OPTIMAZINGPATH\GPP_DATA_STRUCT.CPP
^D:\2_개발\2013 년\4_GLOBALPATHPLANNING\3]GPP_COMPLATE\GPP_OPTIMAZINGPATH\GPP_OPTIMAZINGPATH.CPP
/c /I"C:\Program Files (x86)\MySQL\MySQL Server 6.0\include" /IImageCtrl /Zi /nologo /W3 /WX- /O2 /Oi /Oy- /GL /D WIN32 /D _WINDOWS /D NDEBUG /D _MBCS /D _AFXDLL /Gm- /EHsc /MD /GS /Gy /fp:precise /Zc:wchar_t /Zc:forScope /Yu"StdAfx.h" /Fp"Release\GPP_OptimazingPath.pch" /Fo"Release\\" /Fd"Release\vc100.pdb" /Gd /TP /wd4996 /analyze- /errorReport:prompt D:\2_개발\2013 년\4_GLOBALPATHPLANNING\3]GPP_COMPLATE\GPP_OPTIMAZINGPATH\GPP_OPTIMAZINGPATH.CPP
^D:\2_개발\2013 년\4_GLOBALPATHPLANNING\3]GPP_COMPLATE\GPP_OPTIMAZINGPATH\GPP_OPTIMAZINGPATHDLG.CPP
/c /I"C:\Program Files (x86)\MySQL\MySQL Server 6.0\include" /IImageCtrl /Zi /nologo /W3 /WX- /O2 /Oi /Oy- /GL /D WIN32 /D _WINDOWS /D NDEBUG /D _MBCS /D _AFXDLL /Gm- /EHsc /MD /GS /Gy /fp:precise /Zc:wchar_t /Zc:forScope /Yu"StdAfx.h" /Fp"Release\GPP_OptimazingPath.pch" /Fo"Release\\" /Fd"Release\vc100.pdb" /Gd /TP /wd4996 /analyze- /errorReport:prompt D:\2_개발\2013 년\4_GLOBALPATHPLANNING\3]GPP_COMPLATE\GPP_OPTIMAZINGPATH\GPP_OPTIMAZINGPATHDLG.CPP
^D:\2_개발\2013 년\4_GLOBALPATHPLANNING\3]GPP_COMPLATE\GPP_OPTIMAZINGPATH\IMAGECTRL\IMAGECTRL.CPP
/c /I"C:\Program Files (x86)\MySQL\MySQL Server 6.0\include" /IImageCtrl /Zi /nologo /W3 /WX- /O2 /Oi /Oy- /GL /D WIN32 /D _WINDOWS /D NDEBUG /D _MBCS /D _AFXDLL /Gm- /EHsc /MD /GS /Gy /fp:precise /Zc:wchar_t /Zc:forScope /Yu"StdAfx.h" /Fp"Release\GPP_OptimazingPath.pch" /Fo"Release\\" /Fd"Release\vc100.pdb" /Gd /TP /wd4996 /analyze- /errorReport:prompt D:\2_개발\2013 년\4_GLOBALPATHPLANNING\3]GPP_COMPLATE\GPP_OPTIMAZINGPATH\IMAGECTRL\IMAGECTRL.CPP
^D:\2_개발\2013 년\4_GLOBALPATHPLANNING\3]GPP_COMPLATE\GPP_OPTIMAZINGPATH\IMAGECTRL\IMAGEPROCESSING.CPP
/c /I"C:\Program Files (x86)\MySQL\MySQL Server 6.0\include" /IImageCtrl /Zi /nologo /W3 /WX- /O2 /Oi /Oy- /GL /D WIN32 /D _WINDOWS /D NDEBUG /D _MBCS /D _AFXDLL /Gm- /EHsc /MD /GS /Gy /fp:precise /Zc:wchar_t /Zc:forScope /Yu"StdAfx.h" /Fp"Release\GPP_OptimazingPath.pch" /Fo"Release\\" /Fd"Release\vc100.pdb" /Gd /TP /wd4996 /analyze- /errorReport:prompt D:\2_개발\2013 년\4_GLOBALPATHPLANNING\3]GPP_COMPLATE\GPP_OPTIMAZINGPATH\IMAGECTRL\IMAGEPROCESSING.CPP
^D:\2_개발\2013 년\4_GLOBALPATHPLANNING\3]GPP_COMPLATE\GPP_OPTIMAZINGPATH\MYSQL_MANAGER.CPP
/c /I"C:\Program Files (x86)\MySQL\MySQL Server 6.0\include" /IImageCtrl /Zi /nologo /W3 /WX- /O2 /Oi /Oy- /GL /D WIN32 /D _WINDOWS /D NDEBUG /D _MBCS /D _AFXDLL /Gm- /EHsc /MD /GS /Gy /fp:precise /Zc:wchar_t /Zc:forScope /Yu"StdAfx.h" /Fp"Release\GPP_OptimazingPath.pch" /Fo"Release\\" /Fd"Release\vc100.pdb" /Gd /TP /wd4996 /analyze- /errorReport:prompt D:\2_개발\2013 년\4_GLOBALPATHPLANNING\3]GPP_COMPLATE\GPP_OPTIMAZINGPATH\MYSQL_MANAGER.CPP
^D:\2_개발\2013 년\4_GLOBALPATHPLANNING\3]GPP_COMPLATE\GPP_OPTIMAZINGPATH\SEARCHOPTIMIZINGPATH.CPP
/c /I"C:\Program Files (x86)\MySQL\MySQL Server 6.0\include" /IImageCtrl /Zi /nologo /W3 /WX- /O2 /Oi /Oy- /GL /D WIN32 /D _WINDOWS /D NDEBUG /D _MBCS /D _AFXDLL /Gm- /EHsc /MD /GS /Gy /fp:precise /Zc:wchar_t /Zc:forScope /Yu"StdAfx.h" /Fp"Release\GPP_OptimazingPath.pch" /Fo"Release\\" /Fd"Release\vc100.pdb" /Gd /TP /wd4996 /analyze- /errorReport:prompt D:\2_개발\2013 년\4_GLOBALPATHPLANNING\3]GPP_COMPLATE\GPP_OPTIMAZINGPATH\SEARCHOPTIMIZINGPATH.CPP
^G:\2_개발\2013 년\GLOBALPATHPLANNING(완결)\3]GPP_COMPLATE\GPP_OPTIMAZINGPATH\STDAFX.CPP
/c /I"C:\Program Files (x86)\MySQL\MySQL Server 6.0\include" /IImageCtrl /I"C:\Program Files\MariaDB 10.1\include\mysql" /Zi /nologo /W3 /WX- /O2 /Oi /Oy- /GL /D WIN32 /D _WINDOWS /D NDEBUG /D _MBCS /D _AFXDLL /Gm- /EHsc /MD /GS /Gy /fp:precise /Zc:wchar_t /Zc:forScope /Yc"StdAfx.h" /Fp"Release\GPP_OptimazingPath.pch" /Fo"Release\\" /Fd"Release\vc100.pdb" /Gd /TP /wd4996 /analyze- /errorReport:prompt G:\2_개발\2013 년\GLOBALPATHPLANNING(완결)\3]GPP_COMPLATE\GPP_OPTIMAZINGPATH\STDAFX.CPP
^G:\2_개발\2013 년\GLOBALPATHPLANNING(완결)\3]GPP_COMPLATE\GPP_OPTIMAZINGPATH\GPP_DATA_STRUCT.CPP
/c /I"C:\Program Files (x86)\MySQL\MySQL Server 6.0\include" /IImageCtrl /I"C:\Program Files\MariaDB 10.1\include\mysql" /Zi /nologo /W3 /WX- /O2 /Oi /Oy- /GL /D WIN32 /D _WINDOWS /D NDEBUG /D _MBCS /D _AFXDLL /Gm- /EHsc /MD /GS /Gy /fp:precise /Zc:wchar_t /Zc:forScope /Yu"StdAfx.h" /Fp"Release\GPP_OptimazingPath.pch" /Fo"Release\\" /Fd"Release\vc100.pdb" /Gd /TP /wd4996 /analyze- /errorReport:prompt G:\2_개발\2013 년\GLOBALPATHPLANNING(완결)\3]GPP_COMPLATE\GPP_OPTIMAZINGPATH\GPP_DATA_STRUCT.CPP
^G:\2_개발\2013 년\GLOBALPATHPLANNING(완결)\3]GPP_COMPLATE\GPP_OPTIMAZINGPATH\GPP_OPTIMAZINGPATH.CPP
/c /I"C:\Program Files (x86)\MySQL\MySQL Server 6.0\include" /IImageCtrl /I"C:\Program Files\MariaDB 10.1\include\mysql" /Zi /nologo /W3 /WX- /O2 /Oi /Oy- /GL /D WIN32 /D _WINDOWS /D NDEBUG /D _MBCS /D _AFXDLL /Gm- /EHsc /MD /GS /Gy /fp:precise /Zc:wchar_t /Zc:forScope /Yu"StdAfx.h" /Fp"Release\GPP_OptimazingPath.pch" /Fo"Release\\" /Fd"Release\vc100.pdb" /Gd /TP /wd4996 /analyze- /errorReport:prompt G:\2_개발\2013 년\GLOBALPATHPLANNING(완결)\3]GPP_COMPLATE\GPP_OPTIMAZINGPATH\GPP_OPTIMAZINGPATH.CPP
^G:\2_개발\2013 년\GLOBALPATHPLANNING(완결)\3]GPP_COMPLATE\GPP_OPTIMAZINGPATH\GPP_OPTIMAZINGPATHDLG.CPP
/c /I"C:\Program Files (x86)\MySQL\MySQL Server 6.0\include" /IImageCtrl /I"C:\Program Files\MariaDB 10.1\include\mysql" /Zi /nologo /W3 /WX- /O2 /Oi /Oy- /GL /D WIN32 /D _WINDOWS /D NDEBUG /D _MBCS /D _AFXDLL /Gm- /EHsc /MD /GS /Gy /fp:precise /Zc:wchar_t /Zc:forScope /Yu"StdAfx.h" /Fp"Release\GPP_OptimazingPath.pch" /Fo"Release\\" /Fd"Release\vc100.pdb" /Gd /TP /wd4996 /analyze- /errorReport:prompt G:\2_개발\2013 년\GLOBALPATHPLANNING(완결)\3]GPP_COMPLATE\GPP_OPTIMAZINGPATH\GPP_OPTIMAZINGPATHDLG.CPP
^G:\2_개발\2013 년\GLOBALPATHPLANNING(완결)\3]GPP_COMPLATE\GPP_OPTIMAZINGPATH\IMAGECTRL\IMAGECTRL.CPP
/c /I"C:\Program Files (x86)\MySQL\MySQL Server 6.0\include" /IImageCtrl /I"C:\Program Files\MariaDB 10.1\include\mysql" /Zi /nologo /W3 /WX- /O2 /Oi /Oy- /GL /D WIN32 /D _WINDOWS /D NDEBUG /D _MBCS /D _AFXDLL /Gm- /EHsc /MD /GS /Gy /fp:precise /Zc:wchar_t /Zc:forScope /Yu"StdAfx.h" /Fp"Release\GPP_OptimazingPath.pch" /Fo"Release\\" /Fd"Release\vc100.pdb" /Gd /TP /wd4996 /analyze- /errorReport:prompt G:\2_개발\2013 년\GLOBALPATHPLANNING(완결)\3]GPP_COMPLATE\GPP_OPTIMAZINGPATH\IMAGECTRL\IMAGECTRL.CPP
^G:\2_개발\2013 년\GLOBALPATHPLANNING(완결)\3]GPP_COMPLATE\GPP_OPTIMAZINGPATH\IMAGECTRL\IMAGEPROCESSING.CPP
/c /I"C:\Program Files (x86)\MySQL\MySQL Server 6.0\include" /IImageCtrl /I"C:\Program Files\MariaDB 10.1\include\mysql" /Zi /nologo /W3 /WX- /O2 /Oi /Oy- /GL /D WIN32 /D _WINDOWS /D NDEBUG /D _MBCS /D _AFXDLL /Gm- /EHsc /MD /GS /Gy /fp:precise /Zc:wchar_t /Zc:forScope /Yu"StdAfx.h" /Fp"Release\GPP_OptimazingPath.pch" /Fo"Release\\" /Fd"Release\vc100.pdb" /Gd /TP /wd4996 /analyze- /errorReport:prompt G:\2_개발\2013 년\GLOBALPATHPLANNING(완결)\3]GPP_COMPLATE\GPP_OPTIMAZINGPATH\IMAGECTRL\IMAGEPROCESSING.CPP
^G:\2_개발\2013 년\GLOBALPATHPLANNING(완결)\3]GPP_COMPLATE\GPP_OPTIMAZINGPATH\MYSQL_MANAGER.CPP
/c /I"C:\Program Files (x86)\MySQL\MySQL Server 6.0\include" /IImageCtrl /I"C:\Program Files\MariaDB 10.1\include\mysql" /Zi /nologo /W3 /WX- /O2 /Oi /Oy- /GL /D WIN32 /D _WINDOWS /D NDEBUG /D _MBCS /D _AFXDLL /Gm- /EHsc /MD /GS /Gy /fp:precise /Zc:wchar_t /Zc:forScope /Yu"StdAfx.h" /Fp"Release\GPP_OptimazingPath.pch" /Fo"Release\\" /Fd"Release\vc100.pdb" /Gd /TP /wd4996 /analyze- /errorReport:prompt G:\2_개발\2013 년\GLOBALPATHPLANNING(완결)\3]GPP_COMPLATE\GPP_OPTIMAZINGPATH\MYSQL_MANAGER.CPP
^G:\2_개발\2013 년\GLOBALPATHPLANNING(완결)\3]GPP_COMPLATE\GPP_OPTIMAZINGPATH\SEARCHOPTIMIZINGPATH.CPP
/c /I"C:\Program Files (x86)\MySQL\MySQL Server 6.0\include" /IImageCtrl /I"C:\Program Files\MariaDB 10.1\include\mysql" /Zi /nologo /W3 /WX- /O2 /Oi /Oy- /GL /D WIN32 /D _WINDOWS /D NDEBUG /D _MBCS /D _AFXDLL /Gm- /EHsc /MD /GS /Gy /fp:precise /Zc:wchar_t /Zc:forScope /Yu"StdAfx.h" /Fp"Release\GPP_OptimazingPath.pch" /Fo"Release\\" /Fd"Release\vc100.pdb" /Gd /TP /wd4996 /analyze- /errorReport:prompt G:\2_개발\2013 년\GLOBALPATHPLANNING(완결)\3]GPP_COMPLATE\GPP_OPTIMAZINGPATH\SEARCHOPTIMIZINGPATH.CPP
