^D:\2_개발\2013 년\4_GLOBALPATHPLANNING\3]GPP_COMPLATE\GPP_OPTIMAZINGPATH\STDAFX.CPP
D:\2_개발\2013 년\4_GLOBALPATHPLANNING\3]GPP_COMPLATE\GPP_OPTIMAZINGPATH\RELEASE\GPP_OPTIMAZINGPATH.PCH
D:\2_개발\2013 년\4_GLOBALPATHPLANNING\3]GPP_COMPLATE\GPP_OPTIMAZINGPATH\RELEASE\STDAFX.OBJ
D:\2_개발\2013 년\4_GLOBALPATHPLANNING\3]GPP_COMPLATE\GPP_OPTIMAZINGPATH\RELEASE\VC100.PDB
^D:\2_개발\2013 년\4_GLOBALPATHPLANNING\3]GPP_COMPLATE\GPP_OPTIMAZINGPATH\GPP_DATA_STRUCT.CPP|D:\2_개발\2013 년\4_GLOBALPATHPLANNING\3]GPP_COMPLATE\GPP_OPTIMAZINGPATH\GPP_OPTIMAZINGPATH.CPP|D:\2_개발\2013 년\4_GLOBALPATHPLANNING\3]GPP_COMPLATE\GPP_OPTIMAZINGPATH\GPP_OPTIMAZINGPATHDLG.CPP|D:\2_개발\2013 년\4_GLOBALPATHPLANNING\3]GPP_COMPLATE\GPP_OPTIMAZINGPATH\IMAGECTRL\IMAGECTRL.CPP|D:\2_개발\2013 년\4_GLOBALPATHPLANNING\3]GPP_COMPLATE\GPP_OPTIMAZINGPATH\IMAGECTRL\IMAGEPROCESSING.CPP|D:\2_개발\2013 년\4_GLOBALPATHPLANNING\3]GPP_COMPLATE\GPP_OPTIMAZINGPATH\MYSQL_MANAGER.CPP|D:\2_개발\2013 년\4_GLOBALPATHPLANNING\3]GPP_COMPLATE\GPP_OPTIMAZINGPATH\SEARCHOPTIMIZINGPATH.CPP
D:\2_개발\2013 년\4_GLOBALPATHPLANNING\3]GPP_COMPLATE\GPP_OPTIMAZINGPATH\RELEASE\SEARCHOPTIMIZINGPATH.OBJ
D:\2_개발\2013 년\4_GLOBALPATHPLANNING\3]GPP_COMPLATE\GPP_OPTIMAZINGPATH\RELEASE\MYSQL_MANAGER.OBJ
D:\2_개발\2013 년\4_GLOBALPATHPLANNING\3]GPP_COMPLATE\GPP_OPTIMAZINGPATH\RELEASE\IMAGEPROCESSING.OBJ
D:\2_개발\2013 년\4_GLOBALPATHPLANNING\3]GPP_COMPLATE\GPP_OPTIMAZINGPATH\RELEASE\IMAGECTRL.OBJ
D:\2_개발\2013 년\4_GLOBALPATHPLANNING\3]GPP_COMPLATE\GPP_OPTIMAZINGPATH\RELEASE\GPP_OPTIMAZINGPATHDLG.OBJ
D:\2_개발\2013 년\4_GLOBALPATHPLANNING\3]GPP_COMPLATE\GPP_OPTIMAZINGPATH\RELEASE\GPP_OPTIMAZINGPATH.OBJ
D:\2_개발\2013 년\4_GLOBALPATHPLANNING\3]GPP_COMPLATE\GPP_OPTIMAZINGPATH\RELEASE\GPP_DATA_STRUCT.OBJ
^D:\2_개발\2013 년\4_GLOBALPATHPLANNING\3]GPP_COMPLATE\GPP_OPTIMAZINGPATH\GPP_DATA_STRUCT.CPP
D:\2_개발\2013 년\4_GLOBALPATHPLANNING\3]GPP_COMPLATE\GPP_OPTIMAZINGPATH\RELEASE\VC100.PDB
^D:\2_개발\2013 년\4_GLOBALPATHPLANNING\3]GPP_COMPLATE\GPP_OPTIMAZINGPATH\GPP_OPTIMAZINGPATH.CPP
D:\2_개발\2013 년\4_GLOBALPATHPLANNING\3]GPP_COMPLATE\GPP_OPTIMAZINGPATH\RELEASE\VC100.PDB
^D:\2_개발\2013 년\4_GLOBALPATHPLANNING\3]GPP_COMPLATE\GPP_OPTIMAZINGPATH\GPP_OPTIMAZINGPATHDLG.CPP
D:\2_개발\2013 년\4_GLOBALPATHPLANNING\3]GPP_COMPLATE\GPP_OPTIMAZINGPATH\RELEASE\VC100.PDB
^D:\2_개발\2013 년\4_GLOBALPATHPLANNING\3]GPP_COMPLATE\GPP_OPTIMAZINGPATH\IMAGECTRL\IMAGECTRL.CPP
D:\2_개발\2013 년\4_GLOBALPATHPLANNING\3]GPP_COMPLATE\GPP_OPTIMAZINGPATH\RELEASE\VC100.PDB
^D:\2_개발\2013 년\4_GLOBALPATHPLANNING\3]GPP_COMPLATE\GPP_OPTIMAZINGPATH\IMAGECTRL\IMAGEPROCESSING.CPP
D:\2_개발\2013 년\4_GLOBALPATHPLANNING\3]GPP_COMPLATE\GPP_OPTIMAZINGPATH\RELEASE\VC100.PDB
^D:\2_개발\2013 년\4_GLOBALPATHPLANNING\3]GPP_COMPLATE\GPP_OPTIMAZINGPATH\MYSQL_MANAGER.CPP
D:\2_개발\2013 년\4_GLOBALPATHPLANNING\3]GPP_COMPLATE\GPP_OPTIMAZINGPATH\RELEASE\VC100.PDB
^D:\2_개발\2013 년\4_GLOBALPATHPLANNING\3]GPP_COMPLATE\GPP_OPTIMAZINGPATH\SEARCHOPTIMIZINGPATH.CPP
D:\2_개발\2013 년\4_GLOBALPATHPLANNING\3]GPP_COMPLATE\GPP_OPTIMAZINGPATH\RELEASE\VC100.PDB
^G:\2_개발\2013 년\GLOBALPATHPLANNING(완결)\3]GPP_COMPLATE\GPP_OPTIMAZINGPATH\STDAFX.CPP
G:\2_개발\2013 년\GLOBALPATHPLANNING(완결)\3]GPP_COMPLATE\GPP_OPTIMAZINGPATH\RELEASE\GPP_OPTIMAZINGPATH.PCH
G:\2_개발\2013 년\GLOBALPATHPLANNING(완결)\3]GPP_COMPLATE\GPP_OPTIMAZINGPATH\RELEASE\STDAFX.OBJ
G:\2_개발\2013 년\GLOBALPATHPLANNING(완결)\3]GPP_COMPLATE\GPP_OPTIMAZINGPATH\RELEASE\VC100.PDB
^G:\2_개발\2013 년\GLOBALPATHPLANNING(완결)\3]GPP_COMPLATE\GPP_OPTIMAZINGPATH\GPP_DATA_STRUCT.CPP|G:\2_개발\2013 년\GLOBALPATHPLANNING(완결)\3]GPP_COMPLATE\GPP_OPTIMAZINGPATH\GPP_OPTIMAZINGPATH.CPP|G:\2_개발\2013 년\GLOBALPATHPLANNING(완결)\3]GPP_COMPLATE\GPP_OPTIMAZINGPATH\GPP_OPTIMAZINGPATHDLG.CPP|G:\2_개발\2013 년\GLOBALPATHPLANNING(완결)\3]GPP_COMPLATE\GPP_OPTIMAZINGPATH\IMAGECTRL\IMAGECTRL.CPP|G:\2_개발\2013 년\GLOBALPATHPLANNING(완결)\3]GPP_COMPLATE\GPP_OPTIMAZINGPATH\IMAGECTRL\IMAGEPROCESSING.CPP|G:\2_개발\2013 년\GLOBALPATHPLANNING(완결)\3]GPP_COMPLATE\GPP_OPTIMAZINGPATH\MYSQL_MANAGER.CPP|G:\2_개발\2013 년\GLOBALPATHPLANNING(완결)\3]GPP_COMPLATE\GPP_OPTIMAZINGPATH\SEARCHOPTIMIZINGPATH.CPP
G:\2_개발\2013 년\GLOBALPATHPLANNING(완결)\3]GPP_COMPLATE\GPP_OPTIMAZINGPATH\RELEASE\SEARCHOPTIMIZINGPATH.OBJ
G:\2_개발\2013 년\GLOBALPATHPLANNING(완결)\3]GPP_COMPLATE\GPP_OPTIMAZINGPATH\RELEASE\MYSQL_MANAGER.OBJ
G:\2_개발\2013 년\GLOBALPATHPLANNING(완결)\3]GPP_COMPLATE\GPP_OPTIMAZINGPATH\RELEASE\IMAGEPROCESSING.OBJ
G:\2_개발\2013 년\GLOBALPATHPLANNING(완결)\3]GPP_COMPLATE\GPP_OPTIMAZINGPATH\RELEASE\IMAGECTRL.OBJ
G:\2_개발\2013 년\GLOBALPATHPLANNING(완결)\3]GPP_COMPLATE\GPP_OPTIMAZINGPATH\RELEASE\GPP_OPTIMAZINGPATHDLG.OBJ
G:\2_개발\2013 년\GLOBALPATHPLANNING(완결)\3]GPP_COMPLATE\GPP_OPTIMAZINGPATH\RELEASE\GPP_OPTIMAZINGPATH.OBJ
G:\2_개발\2013 년\GLOBALPATHPLANNING(완결)\3]GPP_COMPLATE\GPP_OPTIMAZINGPATH\RELEASE\GPP_DATA_STRUCT.OBJ
^G:\2_개발\2013 년\GLOBALPATHPLANNING(완결)\3]GPP_COMPLATE\GPP_OPTIMAZINGPATH\GPP_DATA_STRUCT.CPP
G:\2_개발\2013 년\GLOBALPATHPLANNING(완결)\3]GPP_COMPLATE\GPP_OPTIMAZINGPATH\RELEASE\VC100.PDB
^G:\2_개발\2013 년\GLOBALPATHPLANNING(완결)\3]GPP_COMPLATE\GPP_OPTIMAZINGPATH\GPP_OPTIMAZINGPATH.CPP
G:\2_개발\2013 년\GLOBALPATHPLANNING(완결)\3]GPP_COMPLATE\GPP_OPTIMAZINGPATH\RELEASE\VC100.PDB
^G:\2_개발\2013 년\GLOBALPATHPLANNING(완결)\3]GPP_COMPLATE\GPP_OPTIMAZINGPATH\GPP_OPTIMAZINGPATHDLG.CPP
G:\2_개발\2013 년\GLOBALPATHPLANNING(완결)\3]GPP_COMPLATE\GPP_OPTIMAZINGPATH\RELEASE\VC100.PDB
^G:\2_개발\2013 년\GLOBALPATHPLANNING(완결)\3]GPP_COMPLATE\GPP_OPTIMAZINGPATH\IMAGECTRL\IMAGECTRL.CPP
G:\2_개발\2013 년\GLOBALPATHPLANNING(완결)\3]GPP_COMPLATE\GPP_OPTIMAZINGPATH\RELEASE\VC100.PDB
^G:\2_개발\2013 년\GLOBALPATHPLANNING(완결)\3]GPP_COMPLATE\GPP_OPTIMAZINGPATH\IMAGECTRL\IMAGEPROCESSING.CPP
G:\2_개발\2013 년\GLOBALPATHPLANNING(완결)\3]GPP_COMPLATE\GPP_OPTIMAZINGPATH\RELEASE\VC100.PDB
^G:\2_개발\2013 년\GLOBALPATHPLANNING(완결)\3]GPP_COMPLATE\GPP_OPTIMAZINGPATH\MYSQL_MANAGER.CPP
G:\2_개발\2013 년\GLOBALPATHPLANNING(완결)\3]GPP_COMPLATE\GPP_OPTIMAZINGPATH\RELEASE\VC100.PDB
^G:\2_개발\2013 년\GLOBALPATHPLANNING(완결)\3]GPP_COMPLATE\GPP_OPTIMAZINGPATH\SEARCHOPTIMIZINGPATH.CPP
G:\2_개발\2013 년\GLOBALPATHPLANNING(완결)\3]GPP_COMPLATE\GPP_OPTIMAZINGPATH\RELEASE\VC100.PDB
