^D:\2_개발\2013 년\4_GLOBALPATHPLANNING\3]GPP_COMPLATE\GPP_OPTIMAZINGPATH\RELEASE\GPP_DATA_STRUCT.OBJ|D:\2_개발\2013 년\4_GLOBALPATHPLANNING\3]GPP_COMPLATE\GPP_OPTIMAZINGPATH\RELEASE\GPP_OPTIMAZINGPATH.OBJ|D:\2_개발\2013 년\4_GLOBALPATHPLANNING\3]GPP_COMPLATE\GPP_OPTIMAZINGPATH\RELEASE\GPP_OPTIMAZINGPATH.RES|D:\2_개발\2013 년\4_GLOBALPATHPLANNING\3]GPP_COMPLATE\GPP_OPTIMAZINGPATH\RELEASE\GPP_OPTIMAZINGPATHDLG.OBJ|D:\2_개발\2013 년\4_GLOBALPATHPLANNING\3]GPP_COMPLATE\GPP_OPTIMAZINGPATH\RELEASE\IMAGECTRL.OBJ|D:\2_개발\2013 년\4_GLOBALPATHPLANNING\3]GPP_COMPLATE\GPP_OPTIMAZINGPATH\RELEASE\IMAGEPROCESSING.OBJ|D:\2_개발\2013 년\4_GLOBALPATHPLANNING\3]GPP_COMPLATE\GPP_OPTIMAZINGPATH\RELEASE\MYSQL_MANAGER.OBJ|D:\2_개발\2013 년\4_GLOBALPATHPLANNING\3]GPP_COMPLATE\GPP_OPTIMAZINGPATH\RELEASE\SEARCHOPTIMIZINGPATH.OBJ|D:\2_개발\2013 년\4_GLOBALPATHPLANNING\3]GPP_COMPLATE\GPP_OPTIMAZINGPATH\RELEASE\STDAFX.OBJ
D:\2_개발\2013 년\4_GLOBALPATHPLANNING\3]GPP_COMPLATE\GPP_OPTIMAZINGPATH\RELEASE\GPP_OPTIMAZINGPATH.EXE
D:\2_개발\2013 년\4_GLOBALPATHPLANNING\3]GPP_COMPLATE\GPP_OPTIMAZINGPATH\RELEASE\GPP_OPTIMAZINGPATH.EXE.INTERMEDIATE.MANIFEST
D:\2_개발\2013 년\4_GLOBALPATHPLANNING\3]GPP_COMPLATE\GPP_OPTIMAZINGPATH\RELEASE\GPP_OPTIMAZINGPATH.PDB
^G:\2_개발\2013 년\GLOBALPATHPLANNING(완결)\3]GPP_COMPLATE\GPP_OPTIMAZINGPATH\RELEASE\GPP_DATA_STRUCT.OBJ|G:\2_개발\2013 년\GLOBALPATHPLANNING(완결)\3]GPP_COMPLATE\GPP_OPTIMAZINGPATH\RELEASE\GPP_OPTIMAZINGPATH.OBJ|G:\2_개발\2013 년\GLOBALPATHPLANNING(완결)\3]GPP_COMPLATE\GPP_OPTIMAZINGPATH\RELEASE\GPP_OPTIMAZINGPATH.RES|G:\2_개발\2013 년\GLOBALPATHPLANNING(완결)\3]GPP_COMPLATE\GPP_OPTIMAZINGPATH\RELEASE\GPP_OPTIMAZINGPATHDLG.OBJ|G:\2_개발\2013 년\GLOBALPATHPLANNING(완결)\3]GPP_COMPLATE\GPP_OPTIMAZINGPATH\RELEASE\IMAGECTRL.OBJ|G:\2_개발\2013 년\GLOBALPATHPLANNING(완결)\3]GPP_COMPLATE\GPP_OPTIMAZINGPATH\RELEASE\IMAGEPROCESSING.OBJ|G:\2_개발\2013 년\GLOBALPATHPLANNING(완결)\3]GPP_COMPLATE\GPP_OPTIMAZINGPATH\RELEASE\MYSQL_MANAGER.OBJ|G:\2_개발\2013 년\GLOBALPATHPLANNING(완결)\3]GPP_COMPLATE\GPP_OPTIMAZINGPATH\RELEASE\SEARCHOPTIMIZINGPATH.OBJ|G:\2_개발\2013 년\GLOBALPATHPLANNING(완결)\3]GPP_COMPLATE\GPP_OPTIMAZINGPATH\RELEASE\STDAFX.OBJ
G:\2_개발\2013 년\GLOBALPATHPLANNING(완결)\3]GPP_COMPLATE\GPP_OPTIMAZINGPATH\RELEASE\GPP_OPTIMAZINGPATH.EXE
G:\2_개발\2013 년\GLOBALPATHPLANNING(완결)\3]GPP_COMPLATE\GPP_OPTIMAZINGPATH\RELEASE\GPP_OPTIMAZINGPATH.EXE.INTERMEDIATE.MANIFEST
G:\2_개발\2013 년\GLOBALPATHPLANNING(완결)\3]GPP_COMPLATE\GPP_OPTIMAZINGPATH\RELEASE\GPP_OPTIMAZINGPATH.PDB
