^C:\PROGRAM FILES (X86)\MICROSOFT VISUAL STUDIO 10.0\VC\INCLUDE\MANIFEST\DPIAWARE.MANIFEST|D:\2_개발\2013 년\4_GLOBALPATHPLANNING\3]GPP_COMPLATE\GPP_OPTIMAZINGPATH\RELEASE\GPP_OPTIMAZINGPATH.EXE.INTERMEDIATE.MANIFEST
D:\2_개발\2013 년\4_GLOBALPATHPLANNING\3]GPP_COMPLATE\GPP_OPTIMAZINGPATH\RELEASE\GPP_OPTIMAZINGPATH.EXE
^C:\PROGRAM FILES (X86)\MICROSOFT VISUAL STUDIO 10.0\VC\INCLUDE\MANIFEST\DPIAWARE.MANIFEST|G:\2_개발\2013 년\GLOBALPATHPLANNING(완결)\3]GPP_COMPLATE\GPP_OPTIMAZINGPATH\RELEASE\GPP_OPTIMAZINGPATH.EXE.INTERMEDIATE.MANIFEST
G:\2_개발\2013 년\GLOBALPATHPLANNING(완결)\3]GPP_COMPLATE\GPP_OPTIMAZINGPATH\RELEASE\GPP_OPTIMAZINGPATH.EXE
