^D:\VS2012\2]_[FM_연구개발]\2]NWT_COMPONENT\NWT_SIMULATION\NWT_SIMULATION\NWT_SIMULATION.CPP|D:\VS2012\2]_[FM_연구개발]\2]NWT_COMPONENT\NWT_SIMULATION\NWT_SIMULATION\NWT_SIMULATIONDLG.CPP|D:\VS2012\2]_[FM_연구개발]\2]NWT_COMPONENT\NWT_SIMULATION\NWT_SIMULATION\SOCKNET.CPP
D:\VS2012\2]_[FM_연구개발]\2]NWT_COMPONENT\NWT_SIMULATION\NWT_SIMULATION\DEBUG\NWT_SIMULATION.OBJ
D:\VS2012\2]_[FM_연구개발]\2]NWT_COMPONENT\NWT_SIMULATION\NWT_SIMULATION\DEBUG\NWT_SIMULATIONDLG.OBJ
D:\VS2012\2]_[FM_연구개발]\2]NWT_COMPONENT\NWT_SIMULATION\NWT_SIMULATION\DEBUG\SOCKNET.OBJ
^D:\2]_[FM_연구개발]\2]NWT_COMPONENT\NWT_SIMULATION\NWT_SIMULATION\STDAFX.CPP
D:\2]_[FM_연구개발]\2]NWT_COMPONENT\NWT_SIMULATION\NWT_SIMULATION\DEBUG\NWT_SIMULATION.PCH
D:\2]_[FM_연구개발]\2]NWT_COMPONENT\NWT_SIMULATION\NWT_SIMULATION\DEBUG\STDAFX.OBJ
D:\2]_[FM_연구개발]\2]NWT_COMPONENT\NWT_SIMULATION\NWT_SIMULATION\DEBUG\VC100.PDB
^D:\2]_[FM_연구개발]\2]NWT_COMPONENT\NWT_SIMULATION\NWT_SIMULATION\NWT_SIMULATION.CPP|D:\2]_[FM_연구개발]\2]NWT_COMPONENT\NWT_SIMULATION\NWT_SIMULATION\NWT_SIMULATIONDLG.CPP|D:\2]_[FM_연구개발]\2]NWT_COMPONENT\NWT_SIMULATION\NWT_SIMULATION\SOCKNET.CPP
D:\2]_[FM_연구개발]\2]NWT_COMPONENT\NWT_SIMULATION\NWT_SIMULATION\DEBUG\NWT_SIMULATION.OBJ
D:\2]_[FM_연구개발]\2]NWT_COMPONENT\NWT_SIMULATION\NWT_SIMULATION\DEBUG\NWT_SIMULATIONDLG.OBJ
D:\2]_[FM_연구개발]\2]NWT_COMPONENT\NWT_SIMULATION\NWT_SIMULATION\DEBUG\SOCKNET.OBJ
^D:\2]_[FM_연구개발]\2]NWT_COMPONENT\NWT_SIMULATION\NWT_SIMULATION\NWT_SIMULATION.CPP
D:\2]_[FM_연구개발]\2]NWT_COMPONENT\NWT_SIMULATION\NWT_SIMULATION\DEBUG\VC100.PDB
^D:\2]_[FM_연구개발]\2]NWT_COMPONENT\NWT_SIMULATION\NWT_SIMULATION\NWT_SIMULATIONDLG.CPP
D:\2]_[FM_연구개발]\2]NWT_COMPONENT\NWT_SIMULATION\NWT_SIMULATION\DEBUG\VC100.PDB
^D:\2]_[FM_연구개발]\2]NWT_COMPONENT\NWT_SIMULATION\NWT_SIMULATION\SOCKNET.CPP
D:\2]_[FM_연구개발]\2]NWT_COMPONENT\NWT_SIMULATION\NWT_SIMULATION\DEBUG\VC100.PDB
^G:\2_개발\2011 년\3_NWT_COMPONENT\NWT_SIMULATION\NWT_SIMULATION\STDAFX.CPP
G:\2_개발\2011 년\3_NWT_COMPONENT\NWT_SIMULATION\NWT_SIMULATION\DEBUG\NWT_SIMULATION.PCH
G:\2_개발\2011 년\3_NWT_COMPONENT\NWT_SIMULATION\NWT_SIMULATION\DEBUG\STDAFX.OBJ
G:\2_개발\2011 년\3_NWT_COMPONENT\NWT_SIMULATION\NWT_SIMULATION\DEBUG\VC100.PDB
^G:\2_개발\2011 년\3_NWT_COMPONENT\NWT_SIMULATION\NWT_SIMULATION\NWT_SIMULATION.CPP|G:\2_개발\2011 년\3_NWT_COMPONENT\NWT_SIMULATION\NWT_SIMULATION\NWT_SIMULATIONDLG.CPP|G:\2_개발\2011 년\3_NWT_COMPONENT\NWT_SIMULATION\NWT_SIMULATION\SOCKNET.CPP
G:\2_개발\2011 년\3_NWT_COMPONENT\NWT_SIMULATION\NWT_SIMULATION\DEBUG\NWT_SIMULATION.OBJ
G:\2_개발\2011 년\3_NWT_COMPONENT\NWT_SIMULATION\NWT_SIMULATION\DEBUG\NWT_SIMULATIONDLG.OBJ
G:\2_개발\2011 년\3_NWT_COMPONENT\NWT_SIMULATION\NWT_SIMULATION\DEBUG\SOCKNET.OBJ
^G:\2_개발\2011 년\3_NWT_COMPONENT\NWT_SIMULATION\NWT_SIMULATION\NWT_SIMULATION.CPP
G:\2_개발\2011 년\3_NWT_COMPONENT\NWT_SIMULATION\NWT_SIMULATION\DEBUG\VC100.PDB
^G:\2_개발\2011 년\3_NWT_COMPONENT\NWT_SIMULATION\NWT_SIMULATION\NWT_SIMULATIONDLG.CPP
G:\2_개발\2011 년\3_NWT_COMPONENT\NWT_SIMULATION\NWT_SIMULATION\DEBUG\VC100.PDB
^G:\2_개발\2011 년\3_NWT_COMPONENT\NWT_SIMULATION\NWT_SIMULATION\SOCKNET.CPP
G:\2_개발\2011 년\3_NWT_COMPONENT\NWT_SIMULATION\NWT_SIMULATION\DEBUG\VC100.PDB
