^D:\VS2012\2]_[FM_연구개발]\2]NWT_COMPONENT\NWT_SIMULATION\NWT_SIMULATION\DEBUG\NWT_SIMULATION.OBJ|D:\VS2012\2]_[FM_연구개발]\2]NWT_COMPONENT\NWT_SIMULATION\NWT_SIMULATION\DEBUG\NWT_SIMULATION.RES|D:\VS2012\2]_[FM_연구개발]\2]NWT_COMPONENT\NWT_SIMULATION\NWT_SIMULATION\DEBUG\NWT_SIMULATIONDLG.OBJ|D:\VS2012\2]_[FM_연구개발]\2]NWT_COMPONENT\NWT_SIMULATION\NWT_SIMULATION\DEBUG\SOCKNET.OBJ|D:\VS2012\2]_[FM_연구개발]\2]NWT_COMPONENT\NWT_SIMULATION\NWT_SIMULATION\DEBUG\STDAFX.OBJ
/OUT:"D:\VS2012\2]_[FM_연구개발]\2]NWT_COMPONENT\NWT_SIMULATION\DEBUG\NWT_SIMULATION.EXE" /INCREMENTAL /NOLOGO /MANIFEST /MANIFESTUAC:"level='asInvoker' uiAccess='false'" /manifest:embed /manifestinput:"C:\Program Files (x86)\Microsoft Visual Studio 11.0\VC\Include\Manifest\dpiaware.manifest" /DEBUG /PDB:"D:\VS2012\2]_[FM_연구개발]\2]NWT_COMPONENT\NWT_SIMULATION\DEBUG\NWT_SIMULATION.PDB" /SUBSYSTEM:WINDOWS /TLBID:1 /DYNAMICBASE /NXCOMPAT /IMPLIB:"D:\VS2012\2]_[FM_연구개발]\2]NWT_COMPONENT\NWT_SIMULATION\DEBUG\NWT_SIMULATION.LIB" /MACHINE:X86 /SAFESEH DEBUG\NWT_SIMULATION.RESDEBUG\NWT_SIMULATION.OBJDEBUG\NWT_SIMULATIONDLG.OBJDEBUG\SOCKNET.OBJDEBUG\STDAFX.OBJ
^D:\2]_[FM_연구개발]\2]NWT_COMPONENT\NWT_SIMULATION\NWT_SIMULATION\DEBUG\NWT_SIMULATION.EXE.EMBED.MANIFEST.RES|D:\2]_[FM_연구개발]\2]NWT_COMPONENT\NWT_SIMULATION\NWT_SIMULATION\DEBUG\NWT_SIMULATION.OBJ|D:\2]_[FM_연구개발]\2]NWT_COMPONENT\NWT_SIMULATION\NWT_SIMULATION\DEBUG\NWT_SIMULATION.RES|D:\2]_[FM_연구개발]\2]NWT_COMPONENT\NWT_SIMULATION\NWT_SIMULATION\DEBUG\NWT_SIMULATIONDLG.OBJ|D:\2]_[FM_연구개발]\2]NWT_COMPONENT\NWT_SIMULATION\NWT_SIMULATION\DEBUG\SOCKNET.OBJ|D:\2]_[FM_연구개발]\2]NWT_COMPONENT\NWT_SIMULATION\NWT_SIMULATION\DEBUG\STDAFX.OBJ
/ERRORREPORT:PROMPT /OUT:"D:\2]_[FM_연구개발]\2]NWT_Component\NWT_Simulation\Debug\NWT_Simulation.exe" /INCREMENTAL /NOLOGO /MANIFEST /ManifestFile:"Debug\NWT_Simulation.exe.intermediate.manifest" /MANIFESTUAC:"level='asInvoker' uiAccess='false'" /DEBUG /PDB:"D:\2]_[FM_연구개발]\2]NWT_Component\NWT_Simulation\Debug\NWT_Simulation.pdb" /SUBSYSTEM:WINDOWS /TLBID:1 /DYNAMICBASE /NXCOMPAT /IMPLIB:"D:\2]_[FM_연구개발]\2]NWT_Component\NWT_Simulation\Debug\NWT_Simulation.lib" /MACHINE:X86 Debug\NWT_Simulation.res
Debug\NWT_Simulation.exe.embed.manifest.res
Debug\NWT_Simulation.obj
Debug\NWT_SimulationDlg.obj
Debug\SockNet.obj
Debug\stdafx.obj
^G:\2_개발\2011 년\3_NWT_COMPONENT\NWT_SIMULATION\NWT_SIMULATION\DEBUG\NWT_SIMULATION.EXE.EMBED.MANIFEST.RES|G:\2_개발\2011 년\3_NWT_COMPONENT\NWT_SIMULATION\NWT_SIMULATION\DEBUG\NWT_SIMULATION.OBJ|G:\2_개발\2011 년\3_NWT_COMPONENT\NWT_SIMULATION\NWT_SIMULATION\DEBUG\NWT_SIMULATION.RES|G:\2_개발\2011 년\3_NWT_COMPONENT\NWT_SIMULATION\NWT_SIMULATION\DEBUG\NWT_SIMULATIONDLG.OBJ|G:\2_개발\2011 년\3_NWT_COMPONENT\NWT_SIMULATION\NWT_SIMULATION\DEBUG\SOCKNET.OBJ|G:\2_개발\2011 년\3_NWT_COMPONENT\NWT_SIMULATION\NWT_SIMULATION\DEBUG\STDAFX.OBJ
/ERRORREPORT:PROMPT /OUT:"G:\2_개발\2011 년\3_NWT_Component\NWT_Simulation\Debug\NWT_Simulation.exe" /INCREMENTAL /NOLOGO /MANIFEST /ManifestFile:"Debug\NWT_Simulation.exe.intermediate.manifest" /MANIFESTUAC:"level='asInvoker' uiAccess='false'" /DEBUG /PDB:"G:\2_개발\2011 년\3_NWT_Component\NWT_Simulation\Debug\NWT_Simulation.pdb" /SUBSYSTEM:WINDOWS /TLBID:1 /DYNAMICBASE /NXCOMPAT /IMPLIB:"G:\2_개발\2011 년\3_NWT_Component\NWT_Simulation\Debug\NWT_Simulation.lib" /MACHINE:X86 Debug\NWT_Simulation.res
Debug\NWT_Simulation.exe.embed.manifest.res
Debug\NWT_Simulation.obj
Debug\NWT_SimulationDlg.obj
Debug\SockNet.obj
Debug\stdafx.obj
