^D:\VS2012\2]_[FM_연구개발]\2]NWT_COMPONENT\NWT_SIMULATION\NWT_SIMULATION\NWT_SIMULATION.RC
/D _DEBUG /l"0x0412" /IDebug\ /nologo /fo"DEBUG\NWT_SIMULATION.RES" NWT_SIMULATION.RC /D _DEBUG /l"0x0412" /IDebug\ /nologo /fo"DEBUG\NWT_SIMULATION.RES" D:\VS2012\2]_[FM_연구개발]\2]NWT_COMPONENT\NWT_SIMULATION\NWT_SIMULATION\NWT_SIMULATION.RC
^D:\2]_[FM_연구개발]\2]NWT_COMPONENT\NWT_SIMULATION\NWT_SIMULATION\NWT_SIMULATION.RC
/D _DEBUG /l"0x0412" /IDebug\ /nologo /fo"Debug\NWT_Simulation.res" NWT_Simulation.rc /D _DEBUG /l"0x0412" /IDebug\ /nologo /fo"Debug\NWT_Simulation.res" D:\2]_[FM_연구개발]\2]NWT_COMPONENT\NWT_SIMULATION\NWT_SIMULATION\NWT_SIMULATION.RC
^D:\2]_[FM_연구개발]\2]NWT_COMPONENT\NWT_SIMULATION\NWT_SIMULATION\DEBUG\NWT_SIMULATION_MANIFEST.RC
/nologo /fo"Debug\NWT_Simulation.exe.embed.manifest.res" Debug\NWT_Simulation_manifest.rc /nologo /fo"Debug\NWT_Simulation.exe.embed.manifest.res" D:\2]_[FM_연구개발]\2]NWT_COMPONENT\NWT_SIMULATION\NWT_SIMULATION\DEBUG\NWT_SIMULATION_MANIFEST.RC
^G:\2_개발\2011 년\3_NWT_COMPONENT\NWT_SIMULATION\NWT_SIMULATION\NWT_SIMULATION.RC
/D _DEBUG /l"0x0412" /IDebug\ /nologo /fo"Debug\NWT_Simulation.res" NWT_Simulation.rc /D _DEBUG /l"0x0412" /IDebug\ /nologo /fo"Debug\NWT_Simulation.res" G:\2_개발\2011 년\3_NWT_COMPONENT\NWT_SIMULATION\NWT_SIMULATION\NWT_SIMULATION.RC
^G:\2_개발\2011 년\3_NWT_COMPONENT\NWT_SIMULATION\NWT_SIMULATION\DEBUG\NWT_SIMULATION_MANIFEST.RC
/nologo /fo"Debug\NWT_Simulation.exe.embed.manifest.res" Debug\NWT_Simulation_manifest.rc /nologo /fo"Debug\NWT_Simulation.exe.embed.manifest.res" G:\2_개발\2011 년\3_NWT_COMPONENT\NWT_SIMULATION\NWT_SIMULATION\DEBUG\NWT_SIMULATION_MANIFEST.RC
