^D:\VS2012\2]_[FM_연구개발]\2]NWT_COMPONENT\NWT_SIMULATION\NWT_SIMULATION\NWT_SIMULATION.RC
D:\VS2012\2]_[FM_연구개발]\2]NWT_COMPONENT\NWT_SIMULATION\NWT_SIMULATION\DEBUG\NWT_SIMULATION.RES
^D:\2]_[FM_연구개발]\2]NWT_COMPONENT\NWT_SIMULATION\NWT_SIMULATION\NWT_SIMULATION.RC
D:\2]_[FM_연구개발]\2]NWT_COMPONENT\NWT_SIMULATION\NWT_SIMULATION\DEBUG\NWT_SIMULATION.RES
^D:\2]_[FM_연구개발]\2]NWT_COMPONENT\NWT_SIMULATION\NWT_SIMULATION\DEBUG\NWT_SIMULATION_MANIFEST.RC
D:\2]_[FM_연구개발]\2]NWT_COMPONENT\NWT_SIMULATION\NWT_SIMULATION\DEBUG\NWT_SIMULATION.EXE.EMBED.MANIFEST.RES
^G:\2_개발\2011 년\3_NWT_COMPONENT\NWT_SIMULATION\NWT_SIMULATION\NWT_SIMULATION.RC
G:\2_개발\2011 년\3_NWT_COMPONENT\NWT_SIMULATION\NWT_SIMULATION\DEBUG\NWT_SIMULATION.RES
^G:\2_개발\2011 년\3_NWT_COMPONENT\NWT_SIMULATION\NWT_SIMULATION\DEBUG\NWT_SIMULATION_MANIFEST.RC
G:\2_개발\2011 년\3_NWT_COMPONENT\NWT_SIMULATION\NWT_SIMULATION\DEBUG\NWT_SIMULATION.EXE.EMBED.MANIFEST.RES
