^D:\2_개발\2013 년\NEURALNETWORK\STDAFX.CPP
D:\2_개발\2013 년\NEURALNETWORK\DEBUG\NEURALNETWORK.PCH
D:\2_개발\2013 년\NEURALNETWORK\DEBUG\STDAFX.OBJ
D:\2_개발\2013 년\NEURALNETWORK\DEBUG\VC100.PDB
^D:\2_개발\2013 년\NEURALNETWORK\NEURALNETWORK.CPP|D:\2_개발\2013 년\NEURALNETWORK\NEURALNETWORKDLG.CPP
D:\2_개발\2013 년\NEURALNETWORK\DEBUG\NEURALNETWORK.OBJ
D:\2_개발\2013 년\NEURALNETWORK\DEBUG\NEURALNETWORKDLG.OBJ
^D:\2_개발\2013 년\NEURALNETWORK\NEURALNETWORK.CPP
D:\2_개발\2013 년\NEURALNETWORK\DEBUG\VC100.PDB
^D:\2_개발\2013 년\NEURALNETWORK\NEURALNETWORKDLG.CPP
D:\2_개발\2013 년\NEURALNETWORK\DEBUG\VC100.PDB
D:\2_개발\2013 년\NEURALNETWORK\DEBUG\NEURALNETWORKDLG.OBJ
^D:\2_개발\2013 년\NEURALNETWORK\NEURAL.CPP|D:\2_개발\2013 년\NEURALNETWORK\NEURALNETWORK.CPP|D:\2_개발\2013 년\NEURALNETWORK\NEURALNETWORKDLG.CPP|D:\2_개발\2013 년\NEURALNETWORK\NNETWORK.CPP
D:\2_개발\2013 년\NEURALNETWORK\DEBUG\NEURAL.OBJ
D:\2_개발\2013 년\NEURALNETWORK\DEBUG\NNETWORK.OBJ
D:\2_개발\2013 년\NEURALNETWORK\DEBUG\NEURALNETWORK.OBJ
D:\2_개발\2013 년\NEURALNETWORK\DEBUG\NEURALNETWORKDLG.OBJ
^D:\2_개발\2013 년\NEURALNETWORK\NEURAL.CPP
D:\2_개발\2013 년\NEURALNETWORK\DEBUG\VC100.PDB
D:\2_개발\2013 년\NEURALNETWORK\DEBUG\NEURAL.OBJ
^D:\2_개발\2013 년\NEURALNETWORK\NNETWORK.CPP
D:\2_개발\2013 년\NEURALNETWORK\DEBUG\VC100.PDB
D:\2_개발\2013 년\NEURALNETWORK\DEBUG\NNETWORK.OBJ
^D:\2_개발\2013 년\NEURALNETWORK\NEURAL.CPP|D:\2_개발\2013 년\NEURALNETWORK\NNETWORK.CPP
D:\2_개발\2013 년\NEURALNETWORK\DEBUG\NNETWORK.OBJ
D:\2_개발\2013 년\NEURALNETWORK\DEBUG\NEURAL.OBJ
^D:\2_개발\2013 년\NEURALNETWORK\NEURAL.CPP|D:\2_개발\2013 년\NEURALNETWORK\NEURALNETWORK.CPP|D:\2_개발\2013 년\NEURALNETWORK\NEURALNETWORKDLG.CPP
D:\2_개발\2013 년\NEURALNETWORK\DEBUG\NEURAL.OBJ
D:\2_개발\2013 년\NEURALNETWORK\DEBUG\NEURALNETWORK.OBJ
^D:\2_개발\2013 년\NEURALNETWORK\NEURALNETWORK.CPP|D:\2_개발\2013 년\NEURALNETWORK\NEURALNETWORKDLG.CPP|D:\2_개발\2013 년\NEURALNETWORK\NNETWORK.CPP
D:\2_개발\2013 년\NEURALNETWORK\DEBUG\NEURALNETWORK.OBJ
D:\2_개발\2013 년\NEURALNETWORK\DEBUG\NNETWORK.OBJ
D:\2_개발\2013 년\NEURALNETWORK\DEBUG\NEURALNETWORKDLG.OBJ
^D:\2_개발\2013 년\NEURALNETWORK\NEURAL.CPP|D:\2_개발\2013 년\NEURALNETWORK\NEURALNETWORKDLG.CPP
D:\2_개발\2013 년\NEURALNETWORK\DEBUG\NEURAL.OBJ
D:\2_개발\2013 년\NEURALNETWORK\DEBUG\NEURALNETWORKDLG.OBJ
^D:\2_개발\2013 년\NEURALNETWORK\NEURALNETWORKDLG.CPP|D:\2_개발\2013 년\NEURALNETWORK\NNETWORK.CPP
D:\2_개발\2013 년\NEURALNETWORK\DEBUG\NNETWORK.OBJ
D:\2_개발\2013 년\NEURALNETWORK\DEBUG\NEURALNETWORKDLG.OBJ
^D:\2_개발\2013 년\NEURALNETWORK(홀짝구분 완결)\STDAFX.CPP
D:\2_개발\2013 년\NEURALNETWORK(홀짝구분 완결)\DEBUG\NEURALNETWORK.PCH
D:\2_개발\2013 년\NEURALNETWORK(홀짝구분 완결)\DEBUG\STDAFX.OBJ
D:\2_개발\2013 년\NEURALNETWORK(홀짝구분 완결)\DEBUG\VC100.PDB
^D:\2_개발\2013 년\NEURALNETWORK(홀짝구분 완결)\NEURAL.CPP|D:\2_개발\2013 년\NEURALNETWORK(홀짝구분 완결)\NEURALNETWORK.CPP|D:\2_개발\2013 년\NEURALNETWORK(홀짝구분 완결)\NEURALNETWORKDLG.CPP|D:\2_개발\2013 년\NEURALNETWORK(홀짝구분 완결)\NNETWORK.CPP
D:\2_개발\2013 년\NEURALNETWORK(홀짝구분 완결)\DEBUG\NEURAL.OBJ
D:\2_개발\2013 년\NEURALNETWORK(홀짝구분 완결)\DEBUG\NEURALNETWORK.OBJ
D:\2_개발\2013 년\NEURALNETWORK(홀짝구분 완결)\DEBUG\NEURALNETWORKDLG.OBJ
D:\2_개발\2013 년\NEURALNETWORK(홀짝구분 완결)\DEBUG\NNETWORK.OBJ
^D:\2_개발\2013 년\NEURALNETWORK(홀짝구분 완결)\NEURAL.CPP
D:\2_개발\2013 년\NEURALNETWORK(홀짝구분 완결)\DEBUG\VC100.PDB
^D:\2_개발\2013 년\NEURALNETWORK(홀짝구분 완결)\NEURALNETWORK.CPP
D:\2_개발\2013 년\NEURALNETWORK(홀짝구분 완결)\DEBUG\VC100.PDB
^D:\2_개발\2013 년\NEURALNETWORK(홀짝구분 완결)\NEURALNETWORKDLG.CPP
D:\2_개발\2013 년\NEURALNETWORK(홀짝구분 완결)\DEBUG\VC100.PDB
^D:\2_개발\2013 년\NEURALNETWORK(홀짝구분 완결)\NNETWORK.CPP
D:\2_개발\2013 년\NEURALNETWORK(홀짝구분 완결)\DEBUG\VC100.PDB
^D:\2_개발\2013 년\NEURALNETWORK(완결)\STDAFX.CPP
D:\2_개발\2013 년\NEURALNETWORK(완결)\DEBUG\NEURALNETWORK.PCH
D:\2_개발\2013 년\NEURALNETWORK(완결)\DEBUG\STDAFX.OBJ
D:\2_개발\2013 년\NEURALNETWORK(완결)\DEBUG\VC100.PDB
^D:\2_개발\2013 년\NEURALNETWORK(완결)\NEURAL.CPP|D:\2_개발\2013 년\NEURALNETWORK(완결)\NEURALNETWORK.CPP|D:\2_개발\2013 년\NEURALNETWORK(완결)\NEURALNETWORKDLG.CPP|D:\2_개발\2013 년\NEURALNETWORK(완결)\NNETWORK.CPP
D:\2_개발\2013 년\NEURALNETWORK(완결)\DEBUG\NEURAL.OBJ
D:\2_개발\2013 년\NEURALNETWORK(완결)\DEBUG\NEURALNETWORK.OBJ
D:\2_개발\2013 년\NEURALNETWORK(완결)\DEBUG\NEURALNETWORKDLG.OBJ
D:\2_개발\2013 년\NEURALNETWORK(완결)\DEBUG\NNETWORK.OBJ
^D:\2_개발\2013 년\NEURALNETWORK(완결)\NEURAL.CPP
D:\2_개발\2013 년\NEURALNETWORK(완결)\DEBUG\VC100.PDB
^D:\2_개발\2013 년\NEURALNETWORK(완결)\NEURALNETWORK.CPP
D:\2_개발\2013 년\NEURALNETWORK(완결)\DEBUG\VC100.PDB
^D:\2_개발\2013 년\NEURALNETWORK(완결)\NEURALNETWORKDLG.CPP
D:\2_개발\2013 년\NEURALNETWORK(완결)\DEBUG\VC100.PDB
D:\2_개발\2013 년\NEURALNETWORK(완결)\DEBUG\NEURALNETWORKDLG.OBJ
^D:\2_개발\2013 년\NEURALNETWORK(완결)\NNETWORK.CPP
D:\2_개발\2013 년\NEURALNETWORK(완결)\DEBUG\VC100.PDB
^G:\경재현 노트북 백업\2_개발\2013 년\NEURALNETWORK(완결)\STDAFX.CPP
G:\경재현 노트북 백업\2_개발\2013 년\NEURALNETWORK(완결)\DEBUG\NEURALNETWORK.PCH
G:\경재현 노트북 백업\2_개발\2013 년\NEURALNETWORK(완결)\DEBUG\STDAFX.OBJ
G:\경재현 노트북 백업\2_개발\2013 년\NEURALNETWORK(완결)\DEBUG\VC100.PDB
^G:\경재현 노트북 백업\2_개발\2013 년\NEURALNETWORK(완결)\NEURAL.CPP|G:\경재현 노트북 백업\2_개발\2013 년\NEURALNETWORK(완결)\NEURALNETWORK.CPP|G:\경재현 노트북 백업\2_개발\2013 년\NEURALNETWORK(완결)\NEURALNETWORKDLG.CPP|G:\경재현 노트북 백업\2_개발\2013 년\NEURALNETWORK(완결)\NNETWORK.CPP
G:\경재현 노트북 백업\2_개발\2013 년\NEURALNETWORK(완결)\DEBUG\NEURAL.OBJ
G:\경재현 노트북 백업\2_개발\2013 년\NEURALNETWORK(완결)\DEBUG\NEURALNETWORK.OBJ
G:\경재현 노트북 백업\2_개발\2013 년\NEURALNETWORK(완결)\DEBUG\NEURALNETWORKDLG.OBJ
G:\경재현 노트북 백업\2_개발\2013 년\NEURALNETWORK(완결)\DEBUG\NNETWORK.OBJ
^G:\경재현 노트북 백업\2_개발\2013 년\NEURALNETWORK(완결)\NEURAL.CPP
G:\경재현 노트북 백업\2_개발\2013 년\NEURALNETWORK(완결)\DEBUG\VC100.PDB
^G:\경재현 노트북 백업\2_개발\2013 년\NEURALNETWORK(완결)\NEURALNETWORK.CPP
G:\경재현 노트북 백업\2_개발\2013 년\NEURALNETWORK(완결)\DEBUG\VC100.PDB
^G:\경재현 노트북 백업\2_개발\2013 년\NEURALNETWORK(완결)\NEURALNETWORKDLG.CPP
G:\경재현 노트북 백업\2_개발\2013 년\NEURALNETWORK(완결)\DEBUG\VC100.PDB
^G:\경재현 노트북 백업\2_개발\2013 년\NEURALNETWORK(완결)\NNETWORK.CPP
G:\경재현 노트북 백업\2_개발\2013 년\NEURALNETWORK(완결)\DEBUG\VC100.PDB
