^D:\2_개발\2013 년\NEURALNETWORK\DEBUG\NEURAL.OBJ|D:\2_개발\2013 년\NEURALNETWORK\DEBUG\NEURALNETWORK.EXE.EMBED.MANIFEST.RES|D:\2_개발\2013 년\NEURALNETWORK\DEBUG\NEURALNETWORK.OBJ|D:\2_개발\2013 년\NEURALNETWORK\DEBUG\NEURALNETWORK.RES|D:\2_개발\2013 년\NEURALNETWORK\DEBUG\NEURALNETWORKDLG.OBJ|D:\2_개발\2013 년\NEURALNETWORK\DEBUG\NNETWORK.OBJ|D:\2_개발\2013 년\NEURALNETWORK\DEBUG\STDAFX.OBJ
/ERRORREPORT:PROMPT /OUT:"D:\2_개발\2013 년\NeuralNetwork\Debug\NeuralNetwork.exe" /INCREMENTAL /NOLOGO /MANIFEST /ManifestFile:"Debug\NeuralNetwork.exe.intermediate.manifest" /MANIFESTUAC:"level='asInvoker' uiAccess='false'" /DEBUG /PDB:"D:\2_개발\2013 년\NeuralNetwork\Debug\NeuralNetwork.pdb" /SUBSYSTEM:WINDOWS /TLBID:1 /DYNAMICBASE /NXCOMPAT /IMPLIB:"D:\2_개발\2013 년\NeuralNetwork\Debug\NeuralNetwork.lib" /MACHINE:X86 Debug\NeuralNetwork.res
Debug\NeuralNetwork.exe.embed.manifest.res
Debug\Neural.obj
Debug\NeuralNetwork.obj
Debug\NeuralNetworkDlg.obj
Debug\NNetwork.obj
Debug\stdafx.obj
^D:\2_개발\2013 년\NEURALNETWORK(홀짝구분 완결)\DEBUG\NEURAL.OBJ|D:\2_개발\2013 년\NEURALNETWORK(홀짝구분 완결)\DEBUG\NEURALNETWORK.EXE.EMBED.MANIFEST.RES|D:\2_개발\2013 년\NEURALNETWORK(홀짝구분 완결)\DEBUG\NEURALNETWORK.OBJ|D:\2_개발\2013 년\NEURALNETWORK(홀짝구분 완결)\DEBUG\NEURALNETWORK.RES|D:\2_개발\2013 년\NEURALNETWORK(홀짝구분 완결)\DEBUG\NEURALNETWORKDLG.OBJ|D:\2_개발\2013 년\NEURALNETWORK(홀짝구분 완결)\DEBUG\NNETWORK.OBJ|D:\2_개발\2013 년\NEURALNETWORK(홀짝구분 완결)\DEBUG\STDAFX.OBJ
/ERRORREPORT:PROMPT /OUT:"D:\2_개발\2013 년\NeuralNetwork(홀짝구분 완결)\Debug\NeuralNetwork.exe" /INCREMENTAL /NOLOGO /MANIFEST /ManifestFile:"Debug\NeuralNetwork.exe.intermediate.manifest" /MANIFESTUAC:"level='asInvoker' uiAccess='false'" /DEBUG /PDB:"D:\2_개발\2013 년\NeuralNetwork(홀짝구분 완결)\Debug\NeuralNetwork.pdb" /SUBSYSTEM:WINDOWS /TLBID:1 /DYNAMICBASE /NXCOMPAT /IMPLIB:"D:\2_개발\2013 년\NeuralNetwork(홀짝구분 완결)\Debug\NeuralNetwork.lib" /MACHINE:X86 Debug\NeuralNetwork.res
Debug\NeuralNetwork.exe.embed.manifest.res
Debug\Neural.obj
Debug\NeuralNetwork.obj
Debug\NeuralNetworkDlg.obj
Debug\NNetwork.obj
Debug\stdafx.obj
^D:\2_개발\2013 년\NEURALNETWORK(완결)\DEBUG\NEURAL.OBJ|D:\2_개발\2013 년\NEURALNETWORK(완결)\DEBUG\NEURALNETWORK.EXE.EMBED.MANIFEST.RES|D:\2_개발\2013 년\NEURALNETWORK(완결)\DEBUG\NEURALNETWORK.OBJ|D:\2_개발\2013 년\NEURALNETWORK(완결)\DEBUG\NEURALNETWORK.RES|D:\2_개발\2013 년\NEURALNETWORK(완결)\DEBUG\NEURALNETWORKDLG.OBJ|D:\2_개발\2013 년\NEURALNETWORK(완결)\DEBUG\NNETWORK.OBJ|D:\2_개발\2013 년\NEURALNETWORK(완결)\DEBUG\STDAFX.OBJ
/ERRORREPORT:PROMPT /OUT:"D:\2_개발\2013 년\NeuralNetwork(완결)\Debug\NeuralNetwork.exe" /INCREMENTAL /NOLOGO /MANIFEST /ManifestFile:"Debug\NeuralNetwork.exe.intermediate.manifest" /MANIFESTUAC:"level='asInvoker' uiAccess='false'" /DEBUG /PDB:"D:\2_개발\2013 년\NeuralNetwork(완결)\Debug\NeuralNetwork.pdb" /SUBSYSTEM:WINDOWS /TLBID:1 /DYNAMICBASE /NXCOMPAT /IMPLIB:"D:\2_개발\2013 년\NeuralNetwork(완결)\Debug\NeuralNetwork.lib" /MACHINE:X86 Debug\NeuralNetwork.res
Debug\NeuralNetwork.exe.embed.manifest.res
Debug\Neural.obj
Debug\NeuralNetwork.obj
Debug\NeuralNetworkDlg.obj
Debug\NNetwork.obj
Debug\stdafx.obj
^G:\경재현 노트북 백업\2_개발\2013 년\NEURALNETWORK(완결)\DEBUG\NEURAL.OBJ|G:\경재현 노트북 백업\2_개발\2013 년\NEURALNETWORK(완결)\DEBUG\NEURALNETWORK.EXE.EMBED.MANIFEST.RES|G:\경재현 노트북 백업\2_개발\2013 년\NEURALNETWORK(완결)\DEBUG\NEURALNETWORK.OBJ|G:\경재현 노트북 백업\2_개발\2013 년\NEURALNETWORK(완결)\DEBUG\NEURALNETWORK.RES|G:\경재현 노트북 백업\2_개발\2013 년\NEURALNETWORK(완결)\DEBUG\NEURALNETWORKDLG.OBJ|G:\경재현 노트북 백업\2_개발\2013 년\NEURALNETWORK(완결)\DEBUG\NNETWORK.OBJ|G:\경재현 노트북 백업\2_개발\2013 년\NEURALNETWORK(완결)\DEBUG\STDAFX.OBJ
/ERRORREPORT:PROMPT /OUT:"G:\경재현 노트북 백업\2_개발\2013 년\NeuralNetwork(완결)\Debug\NeuralNetwork.exe" /INCREMENTAL /NOLOGO /MANIFEST /ManifestFile:"Debug\NeuralNetwork.exe.intermediate.manifest" /MANIFESTUAC:"level='asInvoker' uiAccess='false'" /DEBUG /PDB:"G:\경재현 노트북 백업\2_개발\2013 년\NeuralNetwork(완결)\Debug\NeuralNetwork.pdb" /SUBSYSTEM:WINDOWS /TLBID:1 /DYNAMICBASE /NXCOMPAT /IMPLIB:"G:\경재현 노트북 백업\2_개발\2013 년\NeuralNetwork(완결)\Debug\NeuralNetwork.lib" /MACHINE:X86 Debug\NeuralNetwork.res
Debug\NeuralNetwork.exe.embed.manifest.res
Debug\Neural.obj
Debug\NeuralNetwork.obj
Debug\NeuralNetworkDlg.obj
Debug\NNetwork.obj
Debug\stdafx.obj
