^D:\2_개발\2013 년\DNA_ALGM\STDAFX.CPP
D:\2_개발\2013 년\DNA_ALGM\DEBUG\DNA_ALGM.PCH
D:\2_개발\2013 년\DNA_ALGM\DEBUG\STDAFX.OBJ
D:\2_개발\2013 년\DNA_ALGM\DEBUG\VC100.PDB
^D:\2_개발\2013 년\DNA_ALGM\DNA_ALGM.CPP|D:\2_개발\2013 년\DNA_ALGM\DNA_ALGMDLG.CPP
D:\2_개발\2013 년\DNA_ALGM\DEBUG\DNA_ALGM.OBJ
D:\2_개발\2013 년\DNA_ALGM\DEBUG\DNA_ALGMDLG.OBJ
^D:\2_개발\2013 년\DNA_ALGM\DNA_ALGM.CPP
D:\2_개발\2013 년\DNA_ALGM\DEBUG\VC100.PDB
^D:\2_개발\2013 년\DNA_ALGM\DNA_ALGMDLG.CPP
D:\2_개발\2013 년\DNA_ALGM\DEBUG\VC100.PDB
D:\2_개발\2013 년\DNA_ALGM\DEBUG\DNA_ALGMDLG.OBJ
^D:\2_개발\2013 년\DNA_ALGM\RANDOM.CPP
D:\2_개발\2013 년\DNA_ALGM\DEBUG\VC100.PDB
D:\2_개발\2013 년\DNA_ALGM\DEBUG\RANDOM.OBJ
^D:\2_개발\2013 년\DNA_ALGM\DNA_ALGM.CPP|D:\2_개발\2013 년\DNA_ALGM\DNA_ALGMDLG.CPP|D:\2_개발\2013 년\DNA_ALGM\RANDOM.CPP
D:\2_개발\2013 년\DNA_ALGM\DEBUG\DNA_ALGMDLG.OBJ
D:\2_개발\2013 년\DNA_ALGM\DEBUG\DNA_ALGM.OBJ
^D:\2_개발\2013 년\DNA_ALGM\DNA_ALGM.CPP|D:\2_개발\2013 년\DNA_ALGM\DNA_ALGMDLG.CPP|D:\2_개발\2013 년\DNA_ALGM\DNA_ALGORIZM.CPP|D:\2_개발\2013 년\DNA_ALGM\RANDOM.CPP
D:\2_개발\2013 년\DNA_ALGM\DEBUG\DNA_ALGORIZM.OBJ
D:\2_개발\2013 년\DNA_ALGM\DEBUG\RANDOM.OBJ
D:\2_개발\2013 년\DNA_ALGM\DEBUG\DNA_ALGMDLG.OBJ
^D:\2_개발\2013 년\DNA_ALGM\DNA_ALGORIZM.CPP
D:\2_개발\2013 년\DNA_ALGM\DEBUG\VC100.PDB
D:\2_개발\2013 년\DNA_ALGM\DEBUG\DNA_ALGORIZM.OBJ
^D:\2_개발\2013 년\DNA_ALGM\DNA_ALGM.CPP|D:\2_개발\2013 년\DNA_ALGM\DNA_ALGMDLG.CPP|D:\2_개발\2013 년\DNA_ALGM\DNA_ALGORIZM.CPP
D:\2_개발\2013 년\DNA_ALGM\DEBUG\DNA_ALGMDLG.OBJ
D:\2_개발\2013 년\DNA_ALGM\DEBUG\DNA_ALGM.OBJ
D:\2_개발\2013 년\DNA_ALGM\DEBUG\DNA_ALGORIZM.OBJ
^D:\2_개발\2013 년\DNA_ALGM\DNA_ALGMDLG.CPP|D:\2_개발\2013 년\DNA_ALGM\DNA_ALGORIZM.CPP
D:\2_개발\2013 년\DNA_ALGM\DEBUG\DNA_ALGMDLG.OBJ
D:\2_개발\2013 년\DNA_ALGM\DEBUG\DNA_ALGORIZM.OBJ
^G:\경재현 노트북 백업\2_개발\2013 년\DNA_ALGM(유전자 완결)\STDAFX.CPP
G:\경재현 노트북 백업\2_개발\2013 년\DNA_ALGM(유전자 완결)\DEBUG\DNA_ALGM.PCH
G:\경재현 노트북 백업\2_개발\2013 년\DNA_ALGM(유전자 완결)\DEBUG\STDAFX.OBJ
G:\경재현 노트북 백업\2_개발\2013 년\DNA_ALGM(유전자 완결)\DEBUG\VC100.PDB
^G:\경재현 노트북 백업\2_개발\2013 년\DNA_ALGM(유전자 완결)\DNA_ALGM.CPP|G:\경재현 노트북 백업\2_개발\2013 년\DNA_ALGM(유전자 완결)\DNA_ALGMDLG.CPP|G:\경재현 노트북 백업\2_개발\2013 년\DNA_ALGM(유전자 완결)\DNA_ALGORIZM.CPP|G:\경재현 노트북 백업\2_개발\2013 년\DNA_ALGM(유전자 완결)\RANDOM.CPP
G:\경재현 노트북 백업\2_개발\2013 년\DNA_ALGM(유전자 완결)\DEBUG\DNA_ALGM.OBJ
G:\경재현 노트북 백업\2_개발\2013 년\DNA_ALGM(유전자 완결)\DEBUG\DNA_ALGMDLG.OBJ
G:\경재현 노트북 백업\2_개발\2013 년\DNA_ALGM(유전자 완결)\DEBUG\DNA_ALGORIZM.OBJ
G:\경재현 노트북 백업\2_개발\2013 년\DNA_ALGM(유전자 완결)\DEBUG\RANDOM.OBJ
^G:\경재현 노트북 백업\2_개발\2013 년\DNA_ALGM(유전자 완결)\DNA_ALGM.CPP
G:\경재현 노트북 백업\2_개발\2013 년\DNA_ALGM(유전자 완결)\DEBUG\VC100.PDB
^G:\경재현 노트북 백업\2_개발\2013 년\DNA_ALGM(유전자 완결)\DNA_ALGMDLG.CPP
G:\경재현 노트북 백업\2_개발\2013 년\DNA_ALGM(유전자 완결)\DEBUG\VC100.PDB
^G:\경재현 노트북 백업\2_개발\2013 년\DNA_ALGM(유전자 완결)\DNA_ALGORIZM.CPP
G:\경재현 노트북 백업\2_개발\2013 년\DNA_ALGM(유전자 완결)\DEBUG\VC100.PDB
^G:\경재현 노트북 백업\2_개발\2013 년\DNA_ALGM(유전자 완결)\RANDOM.CPP
G:\경재현 노트북 백업\2_개발\2013 년\DNA_ALGM(유전자 완결)\DEBUG\VC100.PDB
