﻿Build started 2015-05-11 오전 9:48:04.
     1>Project "G:\경재현 노트북 백업\2_개발\2013 년\DNA_Algm(유전자 완결)\DNA_Algm.vcxproj" on node 2 (build target(s)).
     1>InitializeBuildStatus:
         Creating "Debug\DNA_Algm.unsuccessfulbuild" because "AlwaysCreate" was specified.
       ClCompile:
         All outputs are up-to-date.
         All outputs are up-to-date.
       ResourceCompile:
         All outputs are up-to-date.
       ManifestResourceCompile:
         All outputs are up-to-date.
       Link:
         All outputs are up-to-date.
       Manifest:
         C:\Program Files (x86)\Microsoft SDKs\Windows\v7.0A\bin\mt.exe /nologo /verbose /out:"Debug\DNA_Algm.exe.embed.manifest" /manifest Debug\DNA_Algm.exe.intermediate.manifest "C:\Program Files (x86)\Microsoft Visual Studio 10.0\VC\Include\Manifest\dpiaware.manifest"
         All outputs are up-to-date.
       FinalizeBuildStatus:
         Deleting file "Debug\DNA_Algm.unsuccessfulbuild".
         Touching "Debug\DNA_Algm.lastbuildstate".
     1>Done Building Project "G:\경재현 노트북 백업\2_개발\2013 년\DNA_Algm(유전자 완결)\DNA_Algm.vcxproj" (build target(s)).

Build succeeded.

Time Elapsed 00:00:00.50
