^D:\2_개발\2013 년\DNA_ALGM\DNA_ALGM.RC
/D _DEBUG /D _AFXDLL /l"0x0412" /IDebug\ /nologo /fo"Debug\DNA_Algm.res" DNA_Algm.rc /D _DEBUG /D _AFXDLL /l"0x0412" /IDebug\ /nologo /fo"Debug\DNA_Algm.res" D:\2_개발\2013 년\DNA_ALGM\DNA_ALGM.RC
^D:\2_개발\2013 년\DNA_ALGM\DEBUG\DNA_ALGM_MANIFEST.RC
/nologo /fo"Debug\DNA_Algm.exe.embed.manifest.res" Debug\DNA_Algm_manifest.rc /nologo /fo"Debug\DNA_Algm.exe.embed.manifest.res" D:\2_개발\2013 년\DNA_ALGM\DEBUG\DNA_ALGM_MANIFEST.RC
^G:\경재현 노트북 백업\2_개발\2013 년\DNA_ALGM(유전자 완결)\DNA_ALGM.RC
/D _DEBUG /D _AFXDLL /l"0x0412" /IDebug\ /nologo /fo"Debug\DNA_Algm.res" DNA_Algm.rc /D _DEBUG /D _AFXDLL /l"0x0412" /IDebug\ /nologo /fo"Debug\DNA_Algm.res" G:\경재현 노트북 백업\2_개발\2013 년\DNA_ALGM(유전자 완결)\DNA_ALGM.RC
^G:\경재현 노트북 백업\2_개발\2013 년\DNA_ALGM(유전자 완결)\DEBUG\DNA_ALGM_MANIFEST.RC
/nologo /fo"Debug\DNA_Algm.exe.embed.manifest.res" Debug\DNA_Algm_manifest.rc /nologo /fo"Debug\DNA_Algm.exe.embed.manifest.res" G:\경재현 노트북 백업\2_개발\2013 년\DNA_ALGM(유전자 완결)\DEBUG\DNA_ALGM_MANIFEST.RC
