^D:\2_개발\2013 년\DNA_ALGM\DEBUG\DNA_ALGM_MANIFEST.RC
D:\2_개발\2013 년\DNA_ALGM\DEBUG\DNA_ALGM.EXE.EMBED.MANIFEST.RES
^D:\2_개발\2013 년\DNA_ALGM\DNA_ALGM.RC
D:\2_개발\2013 년\DNA_ALGM\DEBUG\DNA_ALGM.RES
^G:\경재현 노트북 백업\2_개발\2013 년\DNA_ALGM(유전자 완결)\DNA_ALGM.RC
G:\경재현 노트북 백업\2_개발\2013 년\DNA_ALGM(유전자 완결)\DEBUG\DNA_ALGM.RES
^G:\경재현 노트북 백업\2_개발\2013 년\DNA_ALGM(유전자 완결)\DEBUG\DNA_ALGM_MANIFEST.RC
G:\경재현 노트북 백업\2_개발\2013 년\DNA_ALGM(유전자 완결)\DEBUG\DNA_ALGM.EXE.EMBED.MANIFEST.RES
