^G:\경재현 노트북 백업\2_개발\2011 년\3_NWT_COMPONENT\NEWWAYPOINTTRACER\NEWWAYPOINTTRACER\NEWWT.CPP
/c /I../../sock /ZI /nologo /W3 /WX- /Od /Oy- /D WIN32 /D _DEBUG /D _CONSOLE /D _UNICODE /D UNICODE /Gm /EHsc /RTC1 /MTd /GS /fp:precise /Zc:wchar_t /Zc:forScope /Fo"Debug\\" /Fd"Debug\vc100.pdb" /Gd /TP /analyze- /errorReport:prompt G:\경재현 노트북 백업\2_개발\2011 년\3_NWT_COMPONENT\NEWWAYPOINTTRACER\NEWWAYPOINTTRACER\NEWWT.CPP
^G:\경재현 노트북 백업\2_개발\2011 년\3_NWT_COMPONENT\SOCK\SOCKNETWORK.CPP
/c /I../../sock /ZI /nologo /W3 /WX- /Od /Oy- /D WIN32 /D _DEBUG /D _CONSOLE /D _UNICODE /D UNICODE /Gm /EHsc /RTC1 /MTd /GS /fp:precise /Zc:wchar_t /Zc:forScope /Fo"Debug\\" /Fd"Debug\vc100.pdb" /Gd /TP /analyze- /errorReport:prompt G:\경재현 노트북 백업\2_개발\2011 년\3_NWT_COMPONENT\SOCK\SOCKNETWORK.CPP
^G:\경재현 노트북 백업\2_개발\2011 년\3_NWT_COMPONENT\NEWWAYPOINTTRACER\NEWWAYPOINTTRACER\STDAFX.CPP
/c /I../../sock /ZI /nologo /W3 /WX- /Od /Oy- /D WIN32 /D _DEBUG /D _CONSOLE /D _UNICODE /D UNICODE /Gm /EHsc /RTC1 /MTd /GS /fp:precise /Zc:wchar_t /Zc:forScope /Fo"Debug\\" /Fd"Debug\vc100.pdb" /Gd /TP /analyze- /errorReport:prompt G:\경재현 노트북 백업\2_개발\2011 년\3_NWT_COMPONENT\NEWWAYPOINTTRACER\NEWWAYPOINTTRACER\STDAFX.CPP
