^C:\PROGRAM FILES (X86)\MICROSOFT VISUAL STUDIO 10.0\VC\INCLUDE\MANIFEST\DPIAWARE.MANIFEST|G:\경재현 노트북 백업\2_개발\2011 년\3_NWT_COMPONENT\NEWWAYPOINTTRACER\NEWWAYPOINTTRACER\DEBUG\NEWWAYPOINTTRACER.EXE.INTERMEDIATE.MANIFEST
C:\PROGRAM FILES (X86)\MICROSOFT VISUAL STUDIO 10.0\VC\INCLUDE\MANIFEST\DPIAWARE.MANIFEST
G:\경재현 노트북 백업\2_개발\2011 년\3_NWT_COMPONENT\NEWWAYPOINTTRACER\NEWWAYPOINTTRACER\DEBUG\NEWWAYPOINTTRACER.EXE.EMBED.MANIFEST
