^D:\USEFUL_INCLUDE\K_MATRIX\RELEASE\K_MATRIX.OBJ
D:\USEFUL_INCLUDE\K_MATRIX\RELEASE\K_MATRIX.DLL
D:\USEFUL_INCLUDE\K_MATRIX\RELEASE\K_MATRIX.DLL.INTERMEDIATE.MANIFEST
D:\USEFUL_INCLUDE\K_MATRIX\RELEASE\K_MATRIX.PDB
