^G:\2_개발\2013 년\GLOBALPATHPLANNING(완결)\3]GPP_COMPLATE\GPP_OPTIMAZINGPATH\STDAFX.CPP
G:\2_개발\2013 년\GLOBALPATHPLANNING(완결)\3]GPP_COMPLATE\GPP_OPTIMAZINGPATH\DEBUG\GPP_OPTIMAZINGPATH.PCH
G:\2_개발\2013 년\GLOBALPATHPLANNING(완결)\3]GPP_COMPLATE\GPP_OPTIMAZINGPATH\DEBUG\STDAFX.OBJ
G:\2_개발\2013 년\GLOBALPATHPLANNING(완결)\3]GPP_COMPLATE\GPP_OPTIMAZINGPATH\DEBUG\VC100.PDB
^G:\2_개발\2013 년\GLOBALPATHPLANNING(완결)\3]GPP_COMPLATE\GPP_OPTIMAZINGPATH\GPP_DATA_STRUCT.CPP|G:\2_개발\2013 년\GLOBALPATHPLANNING(완결)\3]GPP_COMPLATE\GPP_OPTIMAZINGPATH\GPP_OPTIMAZINGPATH.CPP|G:\2_개발\2013 년\GLOBALPATHPLANNING(완결)\3]GPP_COMPLATE\GPP_OPTIMAZINGPATH\GPP_OPTIMAZINGPATHDLG.CPP|G:\2_개발\2013 년\GLOBALPATHPLANNING(완결)\3]GPP_COMPLATE\GPP_OPTIMAZINGPATH\IMAGECTRL\IMAGECTRL.CPP|G:\2_개발\2013 년\GLOBALPATHPLANNING(완결)\3]GPP_COMPLATE\GPP_OPTIMAZINGPATH\IMAGECTRL\IMAGEPROCESSING.CPP|G:\2_개발\2013 년\GLOBALPATHPLANNING(완결)\3]GPP_COMPLATE\GPP_OPTIMAZINGPATH\MYSQL_MANAGER.CPP|G:\2_개발\2013 년\GLOBALPATHPLANNING(완결)\3]GPP_COMPLATE\GPP_OPTIMAZINGPATH\SEARCHOPTIMIZINGPATH.CPP
G:\2_개발\2013 년\GLOBALPATHPLANNING(완결)\3]GPP_COMPLATE\GPP_OPTIMAZINGPATH\DEBUG\GPP_DATA_STRUCT.OBJ
G:\2_개발\2013 년\GLOBALPATHPLANNING(완결)\3]GPP_COMPLATE\GPP_OPTIMAZINGPATH\DEBUG\IMAGECTRL.OBJ
G:\2_개발\2013 년\GLOBALPATHPLANNING(완결)\3]GPP_COMPLATE\GPP_OPTIMAZINGPATH\DEBUG\IMAGEPROCESSING.OBJ
G:\2_개발\2013 년\GLOBALPATHPLANNING(완결)\3]GPP_COMPLATE\GPP_OPTIMAZINGPATH\DEBUG\SEARCHOPTIMIZINGPATH.OBJ
^G:\2_개발\2013 년\GLOBALPATHPLANNING(완결)\3]GPP_COMPLATE\GPP_OPTIMAZINGPATH\GPP_DATA_STRUCT.CPP
G:\2_개발\2013 년\GLOBALPATHPLANNING(완결)\3]GPP_COMPLATE\GPP_OPTIMAZINGPATH\DEBUG\VC100.PDB
^G:\2_개발\2013 년\GLOBALPATHPLANNING(완결)\3]GPP_COMPLATE\GPP_OPTIMAZINGPATH\GPP_OPTIMAZINGPATH.CPP
G:\2_개발\2013 년\GLOBALPATHPLANNING(완결)\3]GPP_COMPLATE\GPP_OPTIMAZINGPATH\DEBUG\VC100.PDB
^G:\2_개발\2013 년\GLOBALPATHPLANNING(완결)\3]GPP_COMPLATE\GPP_OPTIMAZINGPATH\GPP_OPTIMAZINGPATHDLG.CPP
G:\2_개발\2013 년\GLOBALPATHPLANNING(완결)\3]GPP_COMPLATE\GPP_OPTIMAZINGPATH\DEBUG\VC100.PDB
^G:\2_개발\2013 년\GLOBALPATHPLANNING(완결)\3]GPP_COMPLATE\GPP_OPTIMAZINGPATH\IMAGECTRL\IMAGECTRL.CPP
G:\2_개발\2013 년\GLOBALPATHPLANNING(완결)\3]GPP_COMPLATE\GPP_OPTIMAZINGPATH\DEBUG\VC100.PDB
^G:\2_개발\2013 년\GLOBALPATHPLANNING(완결)\3]GPP_COMPLATE\GPP_OPTIMAZINGPATH\IMAGECTRL\IMAGEPROCESSING.CPP
G:\2_개발\2013 년\GLOBALPATHPLANNING(완결)\3]GPP_COMPLATE\GPP_OPTIMAZINGPATH\DEBUG\VC100.PDB
^G:\2_개발\2013 년\GLOBALPATHPLANNING(완결)\3]GPP_COMPLATE\GPP_OPTIMAZINGPATH\MYSQL_MANAGER.CPP
G:\2_개발\2013 년\GLOBALPATHPLANNING(완결)\3]GPP_COMPLATE\GPP_OPTIMAZINGPATH\DEBUG\VC100.PDB
^G:\2_개발\2013 년\GLOBALPATHPLANNING(완결)\3]GPP_COMPLATE\GPP_OPTIMAZINGPATH\SEARCHOPTIMIZINGPATH.CPP
G:\2_개발\2013 년\GLOBALPATHPLANNING(완결)\3]GPP_COMPLATE\GPP_OPTIMAZINGPATH\DEBUG\VC100.PDB
